May 8: VE day,Surrender of Germany,war
Aug 6: Atomic bombing of Hiroshima,,war,,war
Aug 9: Atomic bombing of Nagasaki,,war
Aug 19: VJ day,Surrender of Japan,war
Over 200 bombes operating,Over 20\,000 keys broken during the war,crypto